FieldAnalysisTutorial • nasser.pkg
…
How to use these functions within this package.

Cleaning and Organizing the data

The first function in this package is a function that cleans or
organizes the data set.This function is called scrap_col() it requires a
data set and a column list you wish to get exclude from your data. Don’t
forget to concatenate the columns and use quotations!

Type in this code into your R console.

library(nasser.pkg)
scrap_col(AGP_data, c("recap","notes","username","recent","tagnum"))

## # A tibble: 6,086 × 11
##       id date                location    traptype trapnumber critter stage  mass
##    <dbl> <dttm>              <chr>       <chr>    <list>     <chr>   <chr> <dbl>
##  1  5533 2001-06-02 00:00:00 WHS_High S… Bucket   <dbl [1]>  Tiger … Not …  25  
##  2  5535 2001-06-03 00:00:00 MSU_Ag Site Bucket   <dbl [1]>  Wood F… Not …   5  
##  3  5534 2001-06-03 00:00:00 WHS         Bucket   <dbl [1]>  Wood F… Not …   7  
##  4  5538 2001-06-03 00:00:00 WHS_High S… Bucket   <dbl [1]>  Wood F… Not …   8  
##  5  5536 2001-06-03 00:00:00 WHS_High S… Bucket   <dbl [1]>  Wood F… Not …   5  
##  6  5537 2001-06-03 00:00:00 WHS_High S… Bucket   <dbl [1]>  Wood F… Not …  15  
##  7  5541 2001-06-05 00:00:00 WHS_High S… Bucket   <dbl [1]>  Wood F… Not …   4  
##  8  5542 2001-06-05 00:00:00 WHS_High S… Bucket   <dbl [1]>  Wood F… Not …   6  
##  9  5543 2001-06-05 00:00:00 WHS_High S… Bucket   <dbl [1]>  Wood F… Not …   4.5
## 10  5539 2001-06-05 00:00:00 WHS_High S… Bucket   <dbl [1]>  Wood F… Not …   5  
## # ℹ 6,076 more rows
## # ℹ 3 more variables: svl <dbl>, lat <dbl>, lon <dbl>
…
